<?xml version="1.0" standalone="no"?>
<!DOCTYPE svg PUBLIC "-//W3C//DTD SVG 20010904//EN"
 "http://www.w3.org/TR/2001/REC-SVG-20010904/DTD/svg10.dtd">
<svg version="1.0" xmlns="http://www.w3.org/2000/svg"
 width="490.000000pt" height="490.000000pt" viewBox="0 0 490.000000 490.000000"
 preserveAspectRatio="xMidYMid meet">
<metadata>
Created by potrace 1.11, written by Peter Selinger 2001-2013
</metadata>
<g transform="translate(0.000000,490.000000) scale(0.100000,-0.100000)"
fill="#000000" stroke="none">
<path d="M1988 4482 c-363 -363 -420 -425 -444 -475 -51 -114 -35 -261 41
-352 18 -22 208 -217 421 -433 417 -421 418 -422 481 -388 39 21 815 803 843
850 64 107 60 263 -9 367 -17 24 -210 223 -429 443 -393 392 -400 399 -443
402 l-44 3 -417 -417z"/>
<path d="M948 3375 c-26 -7 -64 -23 -85 -35 -21 -13 -221 -206 -445 -429
l-408 -406 0 -50 0 -49 402 -404 c222 -222 419 -414 438 -426 56 -35 119 -51
200 -50 138 1 135 -1 600 461 227 224 418 420 426 435 8 16 12 39 8 53 -7 29
-790 813 -856 857 -73 50 -190 67 -280 43z"/>
<path d="M3770 3376 c-30 -7 -71 -20 -90 -30 -19 -10 -221 -203 -447 -430
-441 -439 -442 -440 -410 -502 9 -16 197 -210 419 -430 465 -464 458 -458 603
-458 157 0 144 -10 622 469 418 419 440 446 417 488 -19 34 -800 819 -843 847
-76 51 -172 67 -271 46z"/>
<path d="M2009 1687 c-223 -221 -417 -418 -431 -437 -77 -108 -84 -266 -16
-379 12 -20 206 -222 432 -449 404 -405 411 -412 451 -412 39 0 47 7 443 403
221 221 416 422 432 447 60 93 71 213 29 326 -20 56 -46 84 -443 482 -395 396
-423 422 -456 422 -33 0 -61 -26 -441 -403z"/>
</g>
</svg>
